<svg width="1500" height="498" viewBox="0 0 1500 498" fill="none" xmlns="http://www.w3.org/2000/svg">
<rect width="1500" height="498" fill="url(#paint0_linear)"/>
<path d="M1111.54 57C1107.39 57.2302 1103.3 58.9306 1100.13 62.1025C1093.29 68.9421 1093.29 80.0307 1100.13 86.8703C1103.55 90.2899 1108.03 92 1112.51 92C1117 92 1121.48 90.2899 1124.9 86.8703C1128.07 83.6986 1129.77 79.6125 1130 75.4608L1111.54 57ZM1107.6 80.3377H1104.13L1107.81 74.2095L1109.5 77.0207L1107.6 80.3377ZM1109.28 80.3377L1115.11 70.1442L1120.93 80.3377H1109.28ZM1126.27 73.7924C1125.15 73.5985 1124.05 73.2845 1122.98 72.8529C1120.99 72.0455 1119.21 70.8593 1117.67 69.3266C1116.03 67.6823 1114.79 65.7538 1113.98 63.5945C1113.63 62.6589 1113.38 61.703 1113.21 60.7315L1126.27 73.7924ZM1127.22 80.9466C1126.42 82.7705 1125.29 84.4164 1123.87 85.8386C1122.33 87.3713 1120.55 88.5579 1118.56 89.365C1116.63 90.1452 1114.6 90.5404 1112.51 90.5404C1110.43 90.5404 1108.4 90.1452 1106.47 89.365C1104.48 88.5579 1102.69 87.3713 1101.16 85.8386C1099.63 84.3053 1098.44 82.5189 1097.64 80.5284C1096.85 78.6047 1096.46 76.5721 1096.46 74.4866C1096.46 72.4005 1096.85 70.368 1097.64 68.4443C1098.44 66.4538 1099.63 64.6674 1101.16 63.1341C1102.58 61.712 1104.23 60.5851 1106.05 59.7846C1107.62 59.0961 1109.27 58.6673 1110.98 58.5055L1111.55 59.0716C1111.74 62.2092 1112.78 65.3046 1114.66 67.9909L1110.33 75.5681L1107.81 71.3725L1101.55 81.7974H1106.77H1114.06H1123.45L1117.23 70.9192C1120.28 73.7005 1124.07 75.2114 1127.93 75.4522L1128.5 76.0194C1128.33 77.7252 1127.9 79.3797 1127.22 80.9466Z" fill="url(#paint1_linear)" style="mix-blend-mode:multiply"/>
<path d="M1261.88 50L1253.33 60.0085L1252.55 60.9205L1244 70.929L1262.31 86.569L1270.86 76.5606L1271.64 75.6485L1280.19 65.6401L1261.88 50ZM1262.18 84.9496L1245.62 70.8016L1253.42 61.6662L1269.99 75.8143L1262.18 84.9496ZM1254.2 60.7542L1262 51.6188L1278.57 65.7669L1270.76 74.9022L1254.2 60.7541L1254.2 60.7542Z" fill="white"/>
<path d="M1264.02 60.0337L1264.4 57.7604L1258.97 59.5836L1260.84 61.1798L1263.45 63.4148L1266.81 66.2858L1268.3 58.4992L1264.02 60.0337ZM1261.25 60.0268L1262.95 59.4533L1262.78 60.4814L1262.08 60.7316L1261.25 60.0268ZM1263.08 61.5897L1266.79 60.2576L1266.06 64.1296L1263.08 61.5897Z" fill="white"/>
<path d="M1265.64 66.7856L1258.66 60.8263C1258.42 60.6223 1258.06 60.651 1257.85 60.8924C1257.65 61.1306 1257.68 61.4954 1257.91 61.6994L1264.89 67.6587C1265.13 67.8649 1265.49 67.833 1265.7 67.5947C1265.9 67.3533 1265.88 66.9918 1265.64 66.7856Z" fill="white"/>
<path d="M1250.09 70.8556C1249.85 70.6516 1249.49 70.6774 1249.29 70.9188C1249.08 71.1602 1249.11 71.5218 1249.35 71.7258C1249.59 71.932 1249.95 71.9065 1250.16 71.6651C1250.37 71.4236 1250.34 71.0618 1250.09 70.8556Z" fill="white"/>
<path d="M1251.84 72.3445C1251.6 72.141 1251.24 72.1668 1251.03 72.4082C1250.82 72.6496 1250.86 73.0112 1251.09 73.2147C1251.34 73.4209 1251.7 73.3954 1251.9 73.154C1252.11 72.9125 1252.08 72.5507 1251.84 72.3445Z" fill="white"/>
<path d="M1253.58 73.8362C1253.34 73.63 1252.98 73.6558 1252.77 73.8972C1252.57 74.1386 1252.6 74.5002 1252.84 74.7064C1253.08 74.9099 1253.44 74.8844 1253.65 74.6429C1253.85 74.4015 1253.82 74.0397 1253.58 73.8362Z" fill="white"/>
<path d="M1255.33 75.3252C1255.09 75.119 1254.72 75.1448 1254.52 75.3862C1254.31 75.6276 1254.34 75.9892 1254.58 76.1954C1254.82 76.3983 1255.18 76.3729 1255.39 76.1314C1255.6 75.8899 1255.56 75.5281 1255.33 75.3252Z" fill="white"/>
<path d="M1257.07 76.8148C1256.83 76.6086 1256.47 76.6366 1256.26 76.878C1256.06 77.1194 1256.09 77.4788 1256.33 77.685C1256.57 77.8912 1256.93 77.8624 1257.13 77.621C1257.34 77.3795 1257.31 77.021 1257.07 76.8148Z" fill="white"/>
<path d="M1254.89 73.4412L1258.25 76.3122L1259.73 68.5286L1255.45 70.0633L1255.84 67.7869L1250.4 69.61L1252.27 71.2062L1254.89 73.4412L1254.89 73.4412ZM1257.49 74.159L1254.52 71.6191L1258.23 70.2873L1257.49 74.159ZM1252.69 70.0561L1254.39 69.483L1254.22 70.5079L1253.51 70.761L1252.69 70.0562L1252.69 70.0561Z" fill="white"/>
<path d="M1274.57 68.4234C1274.55 68.1084 1274.27 67.8717 1273.96 67.8964L1271.1 68.1244L1271.01 66.9804C1270.98 66.6654 1270.71 66.4286 1270.39 66.4534C1270.08 66.4782 1269.84 66.7522 1269.86 67.0704L1270 68.7832C1270.02 69.1003 1270.3 69.3349 1270.61 69.3101L1274.05 69.0404C1274.36 69.0156 1274.6 68.7384 1274.57 68.4234Z" fill="white"/>
<path d="M1261.49 78.7378C1261.52 79.055 1261.79 79.2924 1262.11 79.2647L1262.11 79.2669L1263.26 79.1747L1263.35 80.3187C1263.37 80.6337 1263.65 80.8704 1263.96 80.8457C1264.28 80.8209 1264.51 80.5465 1264.49 80.2287L1264.4 79.0876L1265.54 78.9976C1265.86 78.9728 1266.09 78.6956 1266.07 78.3809C1266.04 78.0659 1265.77 77.8291 1265.45 77.8539L1264.31 77.9436L1264.22 76.8022L1264.22 76.8C1264.19 76.485 1263.92 76.2504 1263.6 76.273C1263.28 76.2975 1263.05 76.5747 1263.07 76.8897L1263.16 78.0337L1262.02 78.1208C1261.7 78.1485 1261.47 78.4228 1261.49 78.7378Z" fill="white"/>
<path d="M1241.23 176.896L1241.92 175.156L1242.15 174.576L1242.39 173.996C1240.8 173.364 1240.03 171.548 1240.67 169.949C1241.31 168.35 1243.12 167.563 1244.7 168.196L1244.93 167.615L1245.16 167.035L1245.86 165.295L1244.5 155.339L1237.25 155.137L1237.01 159.076L1223.8 153.801L1217.31 170.042L1230.53 175.318L1227.99 178.339L1233.39 183.182L1241.23 176.896ZM1229.72 178.21L1231.48 176.12L1232.59 174.794L1231 174.157L1218.93 169.341L1224.48 155.419L1236.55 160.236L1238.15 160.872L1238.25 159.144L1238.42 156.418L1243.42 156.557L1244.59 165.144L1243.95 166.745C1242.09 166.581 1240.25 167.651 1239.52 169.49C1238.79 171.329 1239.38 173.366 1240.84 174.528L1240.2 176.129L1233.44 181.551L1229.72 178.21Z" fill="url(#paint2_linear)" style="mix-blend-mode:multiply"/>
<path d="M1231.6 165.26L1233.78 164.896L1230.47 160.497L1229.58 162.707L1228.35 165.8L1226.76 169.778L1234.3 168.688L1231.6 165.26ZM1230.8 163.005L1231.55 164.004L1230.72 164.143L1230.47 163.829L1230.8 163.005L1230.8 163.005ZM1229.93 165.165L1231.99 167.764L1228.71 168.238L1229.93 165.165Z" fill="url(#paint3_linear)" style="mix-blend-mode:multiply"/>
<path d="M998 294.05L989.273 285L995.887 278.141C997.205 276.775 997.205 274.559 995.887 273.192C995.227 272.508 994.364 272.166 993.5 272.166C992.637 272.166 991.772 272.508 991.113 273.192L984.5 280.05L975.773 271L971 275.95L979.727 285L972.125 292.884V297.834H976.898L984.5 289.95L993.227 299L998 294.05ZM988.477 284.175L987.288 282.941L992.31 277.733L993.5 278.966L988.477 284.175ZM991.909 274.016C992.334 273.576 992.899 273.333 993.5 273.333C994.101 273.333 994.666 273.576 995.091 274.016C995.968 274.926 995.968 276.407 995.091 277.316L994.295 278.141L991.113 274.841L991.909 274.016ZM990.318 275.666L991.515 276.908L986.492 282.116L985.295 280.875L990.318 275.666ZM975.773 272.65L977.341 274.275L976.545 275.1C976.325 275.328 976.325 275.698 976.545 275.925C976.765 276.153 977.121 276.153 977.341 275.925C977.341 275.925 977.341 275.925 977.341 275.924L978.136 275.1L979.727 276.75L978.932 277.575C978.712 277.803 978.712 278.173 978.932 278.4C979.151 278.628 979.508 278.628 979.727 278.4C979.727 278.4 979.727 278.4 979.727 278.4L980.523 277.575L982.114 279.225L981.319 280.05C981.319 280.05 981.318 280.05 981.318 280.05C981.099 280.278 981.099 280.647 981.318 280.875C981.538 281.103 981.894 281.103 982.114 280.875V280.875L982.909 280.05L984.5 281.7L983.705 282.525C983.485 282.753 983.485 283.122 983.705 283.35C983.924 283.578 984.28 283.578 984.5 283.35L985.295 282.525L986.886 284.175L986.091 285C985.871 285.228 985.871 285.597 986.091 285.825C986.31 286.053 986.667 286.053 986.886 285.825C986.887 285.825 986.887 285.825 986.887 285.825L987.682 285L989.273 286.65L988.477 287.475V287.475C988.258 287.703 988.258 288.072 988.477 288.3C988.697 288.528 989.053 288.528 989.273 288.3L990.068 287.475L991.66 289.125L990.864 289.95C990.644 290.178 990.644 290.547 990.864 290.775C991.084 291.002 991.44 291.003 991.66 290.775C991.66 290.775 991.66 290.775 991.66 290.774L992.455 289.95L994.046 291.6L993.251 292.424L993.251 292.425C993.031 292.652 993.031 293.022 993.251 293.25C993.471 293.477 993.827 293.477 994.046 293.25L994.842 292.425L996.409 294.05L993.227 297.35L972.591 275.95L975.773 272.65ZM973.249 296.667V295.7L974.182 296.667H973.249ZM976.432 296.667H975.772L973.249 294.05V293.367L980.523 285.825L981.719 287.066L976.106 292.887C975.886 293.115 975.886 293.485 976.106 293.712C976.325 293.94 976.681 293.94 976.901 293.712L982.515 287.891L983.705 289.125L976.432 296.667Z" fill="white"/>
<path d="M1194 35.0503L1185.27 26L1191.89 19.1414C1193.2 17.7747 1193.2 15.5585 1191.89 14.1918C1191.23 13.5082 1190.36 13.1664 1189.5 13.1664C1188.64 13.1664 1187.77 13.5082 1187.11 14.1918L1180.5 21.0503L1171.77 12L1167 16.9497L1175.73 26L1168.12 33.8835V38.8336H1172.9L1180.5 30.9497L1189.23 40L1194 35.0503ZM1184.48 25.175L1183.29 23.9411L1188.31 18.7326L1189.5 19.9664L1184.48 25.175ZM1187.91 15.0163C1188.33 14.5758 1188.9 14.3332 1189.5 14.3332C1190.1 14.3332 1190.67 14.5759 1191.09 15.0163C1191.97 15.9264 1191.97 17.4068 1191.09 18.3164L1190.3 19.1414L1187.11 15.8414L1187.91 15.0163ZM1186.32 16.6664L1187.51 17.9075L1182.49 23.1161L1181.3 21.8753L1186.32 16.6664ZM1171.77 13.65L1173.34 15.2753L1172.54 16.1003C1172.33 16.328 1172.33 16.6976 1172.54 16.9253C1172.76 17.153 1173.12 17.153 1173.34 16.9253C1173.34 16.9253 1173.34 16.9249 1173.34 16.9244L1174.14 16.1003L1175.73 17.7503L1174.93 18.5754C1174.71 18.8031 1174.71 19.1726 1174.93 19.4004C1175.15 19.6281 1175.51 19.6281 1175.73 19.4004C1175.73 19.3999 1175.73 19.3999 1175.73 19.3999L1176.52 18.5754L1178.11 20.2254L1177.32 21.0495C1177.32 21.0495 1177.32 21.05 1177.32 21.0504C1177.1 21.2781 1177.1 21.6473 1177.32 21.875C1177.54 22.1031 1177.89 22.1031 1178.11 21.875V21.8754L1178.91 21.0504L1180.5 22.6999L1179.7 23.525C1179.48 23.7531 1179.48 24.1223 1179.7 24.35C1179.92 24.5777 1180.28 24.5777 1180.5 24.35L1181.3 23.525L1182.89 25.175L1182.09 26C1181.87 26.2277 1181.87 26.5973 1182.09 26.825C1182.31 27.0527 1182.67 27.0527 1182.89 26.825C1182.89 26.8246 1182.89 26.8246 1182.89 26.8246L1183.68 26L1185.27 27.65L1184.48 28.4746V28.475C1184.26 28.7028 1184.26 29.0719 1184.48 29.3001C1184.7 29.5278 1185.05 29.5278 1185.27 29.3001L1186.07 28.475L1187.66 30.1251L1186.86 30.9497C1186.64 31.1778 1186.64 31.547 1186.86 31.7747C1187.08 32.0024 1187.44 32.0028 1187.66 31.7747C1187.66 31.7747 1187.66 31.7747 1187.66 31.7742L1188.45 30.9497L1190.05 32.5997L1189.25 33.4243L1189.25 33.4247C1189.03 33.6524 1189.03 34.022 1189.25 34.2497C1189.47 34.4774 1189.83 34.4774 1190.05 34.2497L1190.84 33.4247L1192.41 35.0504L1189.23 38.35L1168.59 16.9497L1171.77 13.65ZM1169.25 37.6668V36.7004L1170.18 37.6668H1169.25ZM1172.43 37.6668H1171.77L1169.25 35.0503V34.3672L1176.52 26.825L1177.72 28.0661L1172.11 33.8874C1171.89 34.1151 1171.89 34.4847 1172.11 34.7124C1172.33 34.9401 1172.68 34.9401 1172.9 34.7124L1178.52 28.8912L1179.7 30.1247L1172.43 37.6668Z" fill="url(#paint4_linear)" style="mix-blend-mode:multiply"/>
<path d="M1188.83 220.588L1183.81 225.448C1183.58 225.671 1183.57 226.04 1183.8 226.27C1184.02 226.502 1184.39 226.508 1184.62 226.284L1189.64 221.425C1189.87 221.201 1189.87 220.833 1189.65 220.601C1189.43 220.371 1189.06 220.364 1188.83 220.588Z" fill="url(#paint5_linear)" style="mix-blend-mode:multiply"/>
<path d="M1183 224.611L1184.67 222.991C1184.9 222.767 1184.91 222.399 1184.69 222.168C1184.46 221.937 1184.09 221.932 1183.86 222.156L1182.19 223.775C1181.96 223.999 1181.95 224.367 1182.18 224.598C1182.4 224.829 1182.77 224.834 1183 224.611Z" fill="url(#paint6_linear)" style="mix-blend-mode:multiply"/>
<path d="M1195.08 212.47L1193.06 211.933L1194.24 216.97L1195.83 215.427L1198.06 213.268L1200.93 210.491L1194.06 208.499L1195.08 212.47ZM1194.9 214.704L1194.64 213.558L1195.4 213.763L1195.5 214.128L1194.9 214.704ZM1196.46 213.196L1195.69 210.185L1198.68 211.05L1196.46 213.196Z" fill="url(#paint7_linear)" style="mix-blend-mode:multiply"/>
<path d="M1191.65 198.404L1172.42 217.032C1172.19 217.256 1172.18 217.625 1172.4 217.856L1183.74 229.563C1183.97 229.794 1184.34 229.799 1184.57 229.576L1203.8 210.948C1204.03 210.725 1204.04 210.356 1203.81 210.126L1192.47 198.418C1192.25 198.187 1191.88 198.181 1191.65 198.404ZM1191.22 200.441L1187.73 213.302C1187.7 213.404 1187.54 213.56 1187.43 213.585L1174.46 216.672L1191.22 200.441ZM1184.17 228.334L1174.12 217.951L1187.7 214.717C1187.96 214.656 1188.21 214.506 1188.42 214.308C1188.62 214.11 1188.78 213.863 1188.85 213.608L1192.51 200.131L1202.57 210.516L1184.17 228.334Z" fill="url(#paint8_linear)" style="mix-blend-mode:multiply"/>
<path d="M1149 12.7272C1149 5.69796 1143.33 0 1136.33 0C1134.03 0 1131.86 0.619865 1130 1.70299C1128.14 0.61994 1125.97 0 1123.67 0C1116.67 0 1111 5.69796 1111 12.7272C1111 17.4761 1113.59 21.6167 1117.42 23.8039C1118.18 30.1107 1123.52 35 1130 35C1136.48 35 1141.82 30.1107 1142.58 23.8039C1146.41 21.6167 1149 17.4761 1149 12.7272ZM1119.16 24.626C1120.56 25.1608 1122.08 25.4544 1123.67 25.4544C1125.97 25.4544 1128.14 24.8346 1130 23.7514C1131.86 24.8345 1134.03 25.4544 1136.33 25.4544C1137.92 25.4544 1139.44 25.1608 1140.84 24.626C1140.69 25.3024 1140.48 25.9642 1140.21 26.6068C1139.66 27.9329 1138.86 29.1243 1137.84 30.1474C1136.82 31.1705 1135.63 31.9739 1134.31 32.535C1132.95 33.1153 1131.5 33.4095 1130 33.4095C1128.5 33.4095 1127.05 33.1153 1125.69 32.535C1124.37 31.974 1123.18 31.1705 1122.16 30.1474C1121.14 29.1243 1120.34 27.9329 1119.79 26.6068C1119.52 25.9642 1119.31 25.3024 1119.16 24.626ZM1141.07 22.7977C1140.93 22.8642 1140.79 22.9282 1140.65 22.9894C1139.28 23.5696 1137.83 23.8639 1136.33 23.8639C1134.84 23.8639 1133.39 23.5697 1132.02 22.9894C1131.84 22.9119 1131.66 22.8297 1131.48 22.7435C1134.34 20.4899 1136.21 17.0298 1136.33 13.1269C1136.86 13.5026 1137.37 13.9268 1137.84 14.3981C1138.86 15.4212 1139.66 16.6126 1140.21 17.9381C1140.79 19.3102 1141.08 20.7685 1141.08 22.2728C1141.08 22.4487 1141.08 22.6235 1141.07 22.7977ZM1134.74 12.2023C1134.75 12.3765 1134.75 12.5513 1134.75 12.7272C1134.75 14.2315 1134.46 15.6898 1133.88 17.0613C1133.32 18.3873 1132.52 19.5788 1131.5 20.6019C1131.04 21.0715 1130.53 21.4938 1130 21.8679C1129.47 21.4938 1128.96 21.0715 1128.5 20.6019C1127.48 19.5788 1126.68 18.3874 1126.12 17.0613C1125.54 15.6898 1125.25 14.2315 1125.25 12.7272C1125.25 12.5513 1125.25 12.3765 1125.26 12.2023C1125.4 12.1358 1125.54 12.0718 1125.69 12.0106C1127.05 11.4304 1128.5 11.1361 1130 11.1361C1131.5 11.1361 1132.95 11.4303 1134.31 12.0106C1134.46 12.0718 1134.6 12.1358 1134.74 12.2023ZM1130 9.54556C1128.41 9.54556 1126.9 9.83924 1125.5 10.374C1125.64 9.69762 1125.85 9.03577 1126.12 8.39316C1126.68 7.06715 1127.48 5.87567 1128.5 4.85258C1128.96 4.38298 1129.47 3.96059 1130 3.58652C1130.53 3.96059 1131.04 4.38298 1131.5 4.85258C1132.52 5.87567 1133.32 7.06707 1133.88 8.39316C1134.15 9.03577 1134.36 9.69762 1134.5 10.374C1133.1 9.83916 1131.59 9.54556 1130 9.54556ZM1123.67 13.1269C1123.79 17.0298 1125.66 20.4899 1128.52 22.7435C1128.34 22.8297 1128.16 22.9119 1127.98 22.9894C1126.61 23.5696 1125.16 23.8639 1123.67 23.8639C1122.17 23.8639 1120.72 23.5697 1119.35 22.9894C1119.21 22.9282 1119.07 22.8641 1118.93 22.7977C1118.92 22.6235 1118.92 22.4487 1118.92 22.2728C1118.92 20.7685 1119.21 19.3102 1119.79 17.9387C1120.34 16.6127 1121.14 15.4212 1122.16 14.3981C1122.63 13.9268 1123.14 13.5026 1123.67 13.1269ZM1128.52 2.71094C1125.94 4.74429 1124.17 7.75987 1123.76 11.1961C1120.03 13.3215 1117.48 17.2926 1117.34 21.8731C1116.8 21.4974 1116.3 21.0732 1115.83 20.6019C1114.81 19.5788 1114.01 18.3874 1113.45 17.0613C1112.88 15.6898 1112.58 14.2315 1112.58 12.7272C1112.58 11.2229 1112.88 9.76459 1113.45 8.39316C1114.01 7.06715 1114.81 5.87567 1115.83 4.85258C1116.85 3.82949 1118.03 3.02609 1119.35 2.46499C1120.72 1.88473 1122.17 1.59045 1123.67 1.59045C1125.16 1.59045 1126.61 1.88465 1127.98 2.46499C1128.16 2.54255 1128.34 2.62466 1128.52 2.71094ZM1146.55 8.39316C1147.12 9.76466 1147.42 11.2229 1147.42 12.7272C1147.42 14.2315 1147.12 15.6898 1146.55 17.0613C1145.99 18.3873 1145.19 19.5788 1144.17 20.6019C1143.7 21.0732 1143.2 21.4974 1142.66 21.8731C1142.52 17.2926 1139.97 13.3215 1136.24 11.1961C1135.83 7.75987 1134.06 4.74422 1131.48 2.71094C1131.66 2.62473 1131.84 2.54255 1132.02 2.46507C1133.39 1.8848 1134.84 1.59053 1136.33 1.59053C1137.83 1.59053 1139.28 1.88473 1140.65 2.46507C1141.97 3.02609 1143.15 3.82956 1144.17 4.85265C1145.19 5.87567 1145.99 7.06715 1146.55 8.39316Z" fill="url(#paint9_linear)" style="mix-blend-mode:multiply"/>
<path d="M1039.05 40.9068L1046.39 45.9599L1049.54 48.1256L1056.89 53.1792L1075.26 28.7157L1055.33 14.9999L1039.05 40.9068ZM1040.78 40.5494L1042.13 38.3911L1048.56 42.8118L1047.12 44.9104L1040.78 40.5494ZM1048.17 45.6326L1051.05 41.4354L1052.1 42.1571L1049.22 46.3544L1048.17 45.6326ZM1050.26 47.0761L1051.71 44.9775L1058.13 49.3987L1056.6 51.437L1050.26 47.0761ZM1073.45 29.0132L1058.9 48.3793L1052.43 43.928L1053.87 41.8294C1054.07 41.5396 1054 41.1435 1053.71 40.9442C1053.42 40.7449 1053.02 40.8179 1052.82 41.1077C1053.02 40.8179 1052.95 40.4213 1052.66 40.222C1052.37 40.0226 1051.97 40.0962 1051.78 40.3859C1051.97 40.0962 1051.9 39.6996 1051.61 39.5003C1051.32 39.3009 1050.92 39.3739 1050.73 39.6637L1049.28 41.7623L1042.81 37.3114L1055.7 16.8022L1073.45 29.0132Z" fill="white"/>
<path d="M1054.3 34.9042L1059.85 32.2275L1059.66 35.3521L1066.74 32.1245L1063.99 30.2338L1060.14 27.5869L1055.19 24.1835L1054.3 34.9042ZM1064.16 31.8991L1061.06 33.3123L1061.17 31.5933L1062.67 30.8713L1064.16 31.8991L1064.16 31.8991ZM1061.46 30.0396L1055.75 32.789L1056.28 26.4775L1061.46 30.0396Z" fill="white"/>
<g clip-path="url(#clip0)">
<path d="M1300.28 151.636C1300.28 149.387 1298.46 147.563 1296.21 147.563C1295.91 147.563 1295.62 147.596 1295.34 147.658L1292.64 144.959L1299.96 137.633C1301.23 136.364 1301.23 134.307 1299.96 133.038C1299.33 132.404 1298.5 132.086 1297.66 132.086C1296.83 132.086 1296 132.404 1295.37 133.038L1288.04 140.364L1279.7 132.02C1279.27 131.597 1278.72 131.386 1278.17 131.386C1277.61 131.386 1277.06 131.597 1276.63 132.02C1275.79 132.866 1275.79 134.237 1276.63 135.084L1284.98 143.427L1277.08 151.319V155.914H1281.68L1289.57 148.022L1292.25 150.698C1292.18 150.999 1292.14 151.313 1292.14 151.636C1292.14 156.249 1298.94 156.614 1301.19 156.614C1303.44 156.615 1300.28 153.886 1300.28 151.636ZM1297.66 133.169C1298.24 133.169 1298.79 133.395 1299.2 133.804C1300.04 134.648 1300.04 136.023 1299.2 136.867L1298.43 137.633L1295.37 134.569L1296.13 133.804C1296.54 133.395 1297.08 133.169 1297.66 133.169ZM1277.4 134.317C1276.98 133.895 1276.98 133.208 1277.4 132.786C1277.6 132.581 1277.88 132.469 1278.17 132.469C1278.45 132.469 1278.73 132.581 1278.93 132.786L1287.27 141.129L1285.74 142.661L1277.4 134.317ZM1278.17 154.831V153.934L1279.07 154.831H1278.17ZM1281.23 154.831H1280.6L1278.17 152.402V151.768L1294.6 135.335L1295.75 136.488L1280.92 151.322C1280.71 151.534 1280.71 151.877 1280.92 152.088C1281.13 152.3 1281.47 152.3 1281.68 152.088L1296.52 137.253L1297.66 138.399L1281.23 154.831ZM1290.34 147.256L1291.87 145.725L1294.23 148.08C1293.58 148.439 1293.05 148.966 1292.68 149.601L1290.34 147.256ZM1296.17 154.829C1295.22 154.511 1294.5 154.098 1294.01 153.6C1293.48 153.063 1293.22 152.421 1293.22 151.636C1293.22 150.838 1293.53 150.087 1294.1 149.522C1294.66 148.958 1295.41 148.647 1296.21 148.647C1297.86 148.647 1299.2 149.988 1299.2 151.636C1299.2 152.869 1299.86 154.072 1300.39 155.038C1300.47 155.182 1300.56 155.356 1300.65 155.524C1299.48 155.494 1297.72 155.351 1296.17 154.829Z" fill="url(#paint10_linear)" style="mix-blend-mode:multiply"/>
</g>
<g clip-path="url(#clip1)">
<path d="M1210.69 113.447L1258.58 127.017L1261.49 116.733L1213.6 103.162L1210.69 113.447ZM1257.35 124.819L1253.97 123.861L1254.46 122.147C1254.59 121.673 1254.32 121.181 1253.85 121.046C1253.37 120.913 1252.88 121.188 1252.75 121.661C1252.75 121.662 1252.75 121.662 1252.75 121.662L1252.26 123.375L1248.83 122.404L1249.32 120.69C1249.45 120.216 1249.18 119.724 1248.7 119.59C1248.23 119.456 1247.74 119.73 1247.6 120.204L1247.12 121.919L1243.69 120.947L1244.17 119.233L1244.18 119.232C1244.31 118.76 1244.03 118.267 1243.56 118.133C1243.09 117.999 1242.6 118.274 1242.46 118.747C1242.46 118.748 1242.46 118.748 1242.46 118.748L1241.98 120.461L1238.55 119.489L1239.03 117.776C1239.17 117.302 1238.89 116.81 1238.42 116.675C1237.95 116.542 1237.45 116.817 1237.32 117.29L1236.83 119.004L1233.4 118.033L1233.89 116.319C1234.02 115.845 1233.75 115.353 1233.28 115.219C1232.8 115.084 1232.31 115.359 1232.18 115.833L1231.69 117.548L1228.26 116.576L1228.75 114.861C1228.88 114.389 1228.61 113.895 1228.13 113.762C1227.66 113.628 1227.17 113.902 1227.03 114.376C1227.03 114.376 1227.03 114.376 1227.03 114.376L1226.55 116.09L1223.12 115.118L1223.61 113.405C1223.74 112.931 1223.46 112.439 1222.99 112.304C1222.52 112.171 1222.03 112.446 1221.89 112.918C1221.89 112.918 1221.89 112.918 1221.89 112.92L1221.41 114.633L1217.98 113.662L1218.46 111.949C1218.46 111.948 1218.46 111.948 1218.46 111.948C1218.6 111.474 1218.32 110.982 1217.85 110.848C1217.38 110.713 1216.88 110.988 1216.75 111.462L1216.26 113.175L1212.89 112.219L1214.83 105.362L1259.29 117.962L1257.35 124.819Z" fill="url(#paint11_linear)" style="mix-blend-mode:multiply"/>
</g>
<path d="M1249.24 28.7833L1235.2 11.378C1235.03 11.1696 1234.72 11.1366 1234.51 11.3053L1222.4 21.0771C1222.2 21.2457 1222.16 21.5519 1222.33 21.7603L1227.4 28.0398L1224.76 29.4192L1224.64 29.2679C1224.47 29.0595 1224.17 29.0268 1223.96 29.1954C1223.75 29.3641 1223.72 29.6703 1223.89 29.8787L1228.77 35.9332C1228.94 36.1416 1229.25 36.1746 1229.45 36.0059C1229.66 35.8373 1229.7 35.5308 1229.53 35.3224L1229.41 35.1706L1231.31 32.885L1236.38 39.1656C1236.55 39.374 1236.85 39.407 1237.06 39.2383L1249.17 29.4666C1249.38 29.2979 1249.41 28.9917 1249.24 28.7833ZM1225.39 30.1913L1228.02 28.8138L1230.69 32.1153L1228.78 34.3991L1225.39 30.1913L1225.39 30.1913ZM1248.18 29.015L1238.34 36.9543L1224.91 20.3072L1234.74 12.3679L1248.18 29.015ZM1230.11 29.8524L1223.39 21.5289L1224.15 20.9181L1230.87 29.2416L1237.59 37.5651L1236.83 38.1759L1230.11 29.8524Z" fill="url(#paint12_linear)" style="mix-blend-mode:multiply"/>
<path d="M1230.8 29.9251C1231 29.7564 1231.04 29.4507 1230.87 29.2418C1230.7 29.0329 1230.39 29.0004 1230.19 29.1691C1229.98 29.3377 1229.94 29.6437 1230.11 29.8526C1230.28 30.0615 1230.59 30.0937 1230.8 29.9251Z" fill="url(#paint13_linear)" style="mix-blend-mode:multiply"/>
<path d="M1234.15 14.7241L1243.31 26.0738C1243.31 26.0738 1243.31 26.0744 1243.31 26.0749C1243.48 26.2833 1243.78 26.3163 1243.99 26.1476C1244.2 25.979 1244.23 25.6725 1244.07 25.4641L1234.91 14.1133C1234.74 13.9038 1234.43 13.8711 1234.22 14.0397C1234.01 14.2084 1233.98 14.5146 1234.15 14.7241Z" fill="url(#paint14_linear)" style="mix-blend-mode:multiply"/>
<path d="M1232.64 15.946L1237.52 21.9989C1237.52 21.9994 1237.52 21.9994 1237.52 21.9994C1237.69 22.2084 1238 22.2408 1238.2 22.0721C1238.41 21.9035 1238.45 21.5978 1238.28 21.3889L1233.39 15.3354C1233.22 15.126 1232.92 15.093 1232.71 15.2616C1232.5 15.4303 1232.47 15.7365 1232.64 15.946Z" fill="url(#paint15_linear)" style="mix-blend-mode:multiply"/>
<path d="M1231.12 17.1677L1237.84 25.4907C1237.84 25.4913 1237.84 25.4913 1237.84 25.4913C1238.01 25.7002 1238.31 25.7326 1238.52 25.564C1238.73 25.3953 1238.76 25.0894 1238.59 24.8804L1231.88 16.5569C1231.71 16.3474 1231.4 16.3144 1231.19 16.4831C1230.98 16.6519 1230.95 16.9582 1231.12 17.1677Z" fill="url(#paint16_linear)" style="mix-blend-mode:multiply"/>
<path d="M1229.61 18.3888L1233.88 23.6851C1234.05 23.8946 1234.36 23.9275 1234.57 23.7589C1234.78 23.5903 1234.81 23.284 1234.64 23.0745L1230.36 17.778C1230.2 17.5685 1229.89 17.5357 1229.68 17.7044C1229.47 17.873 1229.44 18.1793 1229.61 18.3888Z" fill="url(#paint17_linear)" style="mix-blend-mode:multiply"/>
<path d="M1228.09 19.6104L1236.03 29.447L1236.03 29.4472C1236.2 29.6567 1236.51 29.6894 1236.72 29.5208C1236.93 29.3521 1236.96 29.0459 1236.79 28.8364L1228.85 18.9998C1228.68 18.7903 1228.38 18.7573 1228.17 18.926C1227.96 19.0946 1227.93 19.4009 1228.09 19.6104Z" fill="url(#paint18_linear)" style="mix-blend-mode:multiply"/>
<path d="M1226.58 20.832L1229.02 23.8582C1229.19 24.0676 1229.5 24.1006 1229.71 23.932C1229.92 23.7633 1229.95 23.4568 1229.78 23.2473L1227.34 20.2212C1227.17 20.0117 1226.86 19.9787 1226.65 20.1474C1226.44 20.3162 1226.41 20.6225 1226.58 20.832Z" fill="url(#paint19_linear)" style="mix-blend-mode:multiply"/>
<path d="M1159.71 153.114L1155.91 149.114L1151.59 162.123L1157.33 160.843L1165.36 159.052L1175.68 156.749L1162.92 142.733L1159.71 153.114ZM1154.45 159.54L1156.72 152.716L1159.07 155.194L1157.97 158.754L1154.45 159.54ZM1160.11 158.278L1163.75 146.469L1172.08 155.608L1160.11 158.278Z" fill="white"/>
<path d="M1169.29 128.08L1168.87 126.186C1168.75 125.664 1168.24 125.333 1167.73 125.447C1167.22 125.561 1166.9 126.077 1167.01 126.6L1167.44 128.493L1163.73 129.32L1163.31 127.427C1163.19 126.904 1162.68 126.573 1162.17 126.687C1161.66 126.801 1161.34 127.317 1161.45 127.84L1161.88 129.733L1158.17 130.56L1157.75 128.667C1157.63 128.144 1157.12 127.813 1156.61 127.927C1156.1 128.041 1155.78 128.557 1155.89 129.08L1156.31 130.973L1152.61 131.8L1152.19 129.907C1152.07 129.384 1151.56 129.053 1151.05 129.167C1150.54 129.282 1150.22 129.798 1150.33 130.32L1150.75 132.213L1147.05 133.04L1146.63 131.147C1146.51 130.624 1146 130.293 1145.49 130.407C1144.98 130.522 1144.65 131.038 1144.77 131.561L1145.19 133.454L1139.63 134.694L1148.92 176.339L1184.14 168.484L1174.85 126.839L1169.29 128.08ZM1181.87 167.043L1150.36 174.071L1141.9 136.134L1145.61 135.307L1146.01 137.121C1146.13 137.644 1146.64 137.975 1147.15 137.861C1147.66 137.747 1147.98 137.23 1147.87 136.708L1147.46 134.894L1151.17 134.067L1151.57 135.881C1151.69 136.403 1152.2 136.735 1152.71 136.621C1153.22 136.507 1153.54 135.99 1153.43 135.467L1153.02 133.654L1156.73 132.827L1157.13 134.641C1157.25 135.163 1157.76 135.495 1158.27 135.381C1158.78 135.266 1159.1 134.75 1158.99 134.227L1158.58 132.413L1162.29 131.587L1162.69 133.4C1162.81 133.923 1163.32 134.255 1163.83 134.14C1164.34 134.026 1164.66 133.51 1164.55 132.987L1164.14 131.173L1167.85 130.347L1168.25 132.16C1168.37 132.683 1168.88 133.015 1169.39 132.9C1169.9 132.786 1170.22 132.27 1170.11 131.747L1169.7 129.933L1173.41 129.106L1181.87 167.043Z" fill="white"/>
<path d="M1180.23 54.4347L1157.49 74.4399C1157.22 74.6801 1157.19 75.0962 1157.43 75.3691L1171.35 91.186C1171.59 91.459 1172.01 91.4852 1172.28 91.2451L1180.48 84.0273L1182.5 87.5134L1182.3 87.6874C1182.03 87.9275 1182 88.344 1182.24 88.617C1182.48 88.89 1182.9 88.9162 1183.17 88.676L1191.08 81.7175C1191.36 81.4773 1191.38 81.0619 1191.14 80.7889C1190.9 80.5159 1190.49 80.4887 1190.21 80.7288L1190.02 80.9028L1186.81 78.4589L1195.02 71.2399C1195.29 70.9997 1195.32 70.5842 1195.08 70.3113L1181.16 54.4944C1180.92 54.2214 1180.5 54.1945 1180.23 54.4347ZM1183.51 86.6266L1181.49 83.1451L1185.81 79.3479L1189.01 81.7896L1183.51 86.6267L1183.51 86.6266ZM1184.96 60.801L1181.99 63.4104L1177.64 58.4678L1180.61 55.8584L1184.96 60.801ZM1182.86 64.3991L1185.83 61.7897L1191.91 68.7093L1188.95 71.3186L1182.86 64.3991ZM1176.65 59.3374L1187.96 72.1882L1170.17 87.8443L1158.86 74.9935L1176.65 59.3374ZM1182.78 80.2545L1171.91 89.8217L1171.04 88.833L1181.91 79.2658L1192.78 69.698L1193.65 70.6866L1182.78 80.2545Z" fill="url(#paint20_linear)" style="mix-blend-mode:multiply"/>
<path d="M1182.84 79.3251C1182.6 79.0522 1182.18 79.0253 1181.91 79.2661C1181.63 79.5063 1181.61 79.9217 1181.85 80.1947C1182.09 80.4677 1182.5 80.4949 1182.78 80.2548C1183.05 80.014 1183.08 79.5981 1182.84 79.3251Z" fill="url(#paint21_linear)" style="mix-blend-mode:multiply"/>
<path d="M1176.14 75.5555L1179.53 72.5734L1171.88 69.9518L1172.81 74.4933L1170.57 73.7777L1171.62 79.5319L1173.5 77.8749L1176.14 75.5555ZM1173.63 71.9444L1176.96 73.0838L1174.34 75.3873L1173.63 71.9444ZM1172.5 77.0067L1172.26 75.6992L1173.11 75.9722L1173.2 76.3894L1172.5 77.0067Z" fill="url(#paint22_linear)" style="mix-blend-mode:multiply"/>
<path d="M1164.55 73.4909L1163.56 74.3605L1164.43 75.3492L1165.42 74.4796L1164.55 73.4909Z" fill="url(#paint23_linear)" style="mix-blend-mode:multiply"/>
<path d="M1169.99 68.7078L1169 69.5774L1169.87 70.5661L1170.86 69.6965L1169.99 68.7078Z" fill="url(#paint24_linear)" style="mix-blend-mode:multiply"/>
<path d="M1175.42 63.924L1174.44 64.7943L1175.31 65.7829L1176.29 64.9127L1175.42 63.924Z" fill="url(#paint25_linear)" style="mix-blend-mode:multiply"/>
<path d="M1178.9 67.8781L1177.92 68.7483L1178.78 69.7366L1179.77 68.8664L1178.9 67.8781Z" fill="url(#paint26_linear)" style="mix-blend-mode:multiply"/>
<path d="M1182.38 71.8321L1181.4 72.7023L1182.27 73.691L1183.25 72.8208L1182.38 71.8321Z" fill="url(#paint27_linear)" style="mix-blend-mode:multiply"/>
<path d="M1171.51 81.3995L1170.52 82.2691L1171.39 83.2578L1172.38 82.3882L1171.51 81.3995Z" fill="url(#paint28_linear)" style="mix-blend-mode:multiply"/>
<path d="M1168.03 77.4455L1167.04 78.315L1167.91 79.3033L1168.9 78.4338L1168.03 77.4455Z" fill="url(#paint29_linear)" style="mix-blend-mode:multiply"/>
<path d="M1176.95 76.6164L1175.96 77.486L1176.83 78.4746L1177.82 77.6051L1176.95 76.6164Z" fill="url(#paint30_linear)" style="mix-blend-mode:multiply"/>
<circle cx="1307.5" cy="94.5" r="10.5" stroke="url(#paint31_linear)" stroke-width="10" style="mix-blend-mode:multiply"/>
<path d="M1226 259.807V255.894H1220.05V249H1215.95V255.894H1210V259.807H1215.95V267H1220.05V259.807H1226Z" fill="white"/>
<path d="M1266.47 292C1266.47 290.494 1262.37 277.65 1278.38 282.17C1294.39 286.689 1299.32 279.157 1302.61 264.641C1305.89 250.125 1315.47 248.756 1323 249.029" stroke="url(#paint32_linear)" stroke-width="8" stroke-linecap="round" stroke-linejoin="round" style="mix-blend-mode:multiply"/>
<path d="M1310.2 44.7795C1309.67 45.0496 1305.89 48.7878 1304.62 42.3746C1303.35 35.9614 1299.82 35.5872 1294.14 37.0392C1288.45 38.4913 1286.26 35.3843 1285.01 32.7012" stroke="url(#paint33_linear)" stroke-width="8" stroke-linecap="round" stroke-linejoin="round" style="mix-blend-mode:multiply"/>
<circle cx="875" cy="180" r="8" stroke="white" stroke-width="10"/>
<defs>
<linearGradient id="paint0_linear" x1="1480.5" y1="12.0435" x2="456.91" y2="920.762" gradientUnits="userSpaceOnUse">
<stop stop-color="#6A57B0"/>
<stop offset="1" stop-color="#272EAE"/>
</linearGradient>
<linearGradient id="paint1_linear" x1="1129.55" y1="57.8464" x2="1090.25" y2="69.428" gradientUnits="userSpaceOnUse">
<stop stop-color="#000AFF"/>
<stop offset="1" stop-color="#82349D"/>
</linearGradient>
<linearGradient id="paint2_linear" x1="1237.58" y1="184.433" x2="1238.85" y2="150.006" gradientUnits="userSpaceOnUse">
<stop stop-color="#000AFF"/>
<stop offset="1" stop-color="#82349D"/>
</linearGradient>
<linearGradient id="paint3_linear" x1="1232.79" y1="172.045" x2="1232.34" y2="160.919" gradientUnits="userSpaceOnUse">
<stop stop-color="#000AFF"/>
<stop offset="1" stop-color="#82349D"/>
</linearGradient>
<linearGradient id="paint4_linear" x1="1193.65" y1="12.6771" x2="1163.17" y2="21.341" gradientUnits="userSpaceOnUse">
<stop stop-color="#000AFF"/>
<stop offset="1" stop-color="#82349D"/>
</linearGradient>
<linearGradient id="paint5_linear" x1="1189.19" y1="220.277" x2="1190.55" y2="224.398" gradientUnits="userSpaceOnUse">
<stop stop-color="#000AFF"/>
<stop offset="1" stop-color="#82349D"/>
</linearGradient>
<linearGradient id="paint6_linear" x1="1184.27" y1="221.802" x2="1184.02" y2="224.984" gradientUnits="userSpaceOnUse">
<stop stop-color="#000AFF"/>
<stop offset="1" stop-color="#82349D"/>
</linearGradient>
<linearGradient id="paint7_linear" x1="1196.63" y1="206.223" x2="1192.72" y2="215.855" gradientUnits="userSpaceOnUse">
<stop stop-color="#000AFF"/>
<stop offset="1" stop-color="#82349D"/>
</linearGradient>
<linearGradient id="paint8_linear" x1="1192.1" y1="198.556" x2="1181.22" y2="227.407" gradientUnits="userSpaceOnUse">
<stop stop-color="#000AFF"/>
<stop offset="1" stop-color="#82349D"/>
</linearGradient>
<linearGradient id="paint9_linear" x1="1148.51" y1="0.846431" x2="1106.44" y2="14.3062" gradientUnits="userSpaceOnUse">
<stop stop-color="#7227AE"/>
<stop offset="1" stop-color="#2400FF"/>
</linearGradient>
<linearGradient id="paint10_linear" x1="1301.66" y1="131.996" x2="1272.62" y2="140.819" gradientUnits="userSpaceOnUse">
<stop stop-color="#000AFF"/>
<stop offset="1" stop-color="#82349D"/>
</linearGradient>
<linearGradient id="paint11_linear" x1="1208.17" y1="106.828" x2="1243.93" y2="141.842" gradientUnits="userSpaceOnUse">
<stop stop-color="#000AFF"/>
<stop offset="1" stop-color="#82349D"/>
</linearGradient>
<linearGradient id="paint12_linear" x1="1248.97" y1="29.2353" x2="1226.21" y2="14.7436" gradientUnits="userSpaceOnUse">
<stop stop-color="#000AFF"/>
<stop offset="1" stop-color="#82349D"/>
</linearGradient>
<linearGradient id="paint13_linear" x1="1231.15" y1="29.6247" x2="1230.21" y2="28.9775" gradientUnits="userSpaceOnUse">
<stop stop-color="#000AFF"/>
<stop offset="1" stop-color="#82349D"/>
</linearGradient>
<linearGradient id="paint14_linear" x1="1244.23" y1="25.6995" x2="1240.71" y2="27.4835" gradientUnits="userSpaceOnUse">
<stop stop-color="#000AFF"/>
<stop offset="1" stop-color="#82349D"/>
</linearGradient>
<linearGradient id="paint15_linear" x1="1238.49" y1="21.6931" x2="1234.92" y2="22.8729" gradientUnits="userSpaceOnUse">
<stop stop-color="#000AFF"/>
<stop offset="1" stop-color="#82349D"/>
</linearGradient>
<linearGradient id="paint16_linear" x1="1238.79" y1="25.1552" x2="1235.22" y2="26.6763" gradientUnits="userSpaceOnUse">
<stop stop-color="#000AFF"/>
<stop offset="1" stop-color="#82349D"/>
</linearGradient>
<linearGradient id="paint17_linear" x1="1234.86" y1="23.3894" x2="1231.3" y2="24.4065" gradientUnits="userSpaceOnUse">
<stop stop-color="#000AFF"/>
<stop offset="1" stop-color="#82349D"/>
</linearGradient>
<linearGradient id="paint18_linear" x1="1236.97" y1="29.0925" x2="1233.43" y2="30.7637" gradientUnits="userSpaceOnUse">
<stop stop-color="#000AFF"/>
<stop offset="1" stop-color="#82349D"/>
</linearGradient>
<linearGradient id="paint19_linear" x1="1230.03" y1="23.592" x2="1226.71" y2="23.8679" gradientUnits="userSpaceOnUse">
<stop stop-color="#000AFF"/>
<stop offset="1" stop-color="#82349D"/>
</linearGradient>
<linearGradient id="paint20_linear" x1="1180.86" y1="54.7737" x2="1162.56" y2="86.4077" gradientUnits="userSpaceOnUse">
<stop stop-color="#000AFF"/>
<stop offset="1" stop-color="#82349D"/>
</linearGradient>
<linearGradient id="paint21_linear" x1="1182.41" y1="78.8662" x2="1181.59" y2="80.1694" gradientUnits="userSpaceOnUse">
<stop stop-color="#000AFF"/>
<stop offset="1" stop-color="#82349D"/>
</linearGradient>
<linearGradient id="paint22_linear" x1="1174.9" y1="67.519" x2="1169.97" y2="78.1905" gradientUnits="userSpaceOnUse">
<stop stop-color="#000AFF"/>
<stop offset="1" stop-color="#82349D"/>
</linearGradient>
<linearGradient id="paint23_linear" x1="1164.56" y1="73.5262" x2="1163.74" y2="74.8294" gradientUnits="userSpaceOnUse">
<stop stop-color="#000AFF"/>
<stop offset="1" stop-color="#82349D"/>
</linearGradient>
<linearGradient id="paint24_linear" x1="1170" y1="68.743" x2="1169.17" y2="70.0463" gradientUnits="userSpaceOnUse">
<stop stop-color="#000AFF"/>
<stop offset="1" stop-color="#82349D"/>
</linearGradient>
<linearGradient id="paint25_linear" x1="1175.43" y1="63.9593" x2="1174.61" y2="65.2636" gradientUnits="userSpaceOnUse">
<stop stop-color="#000AFF"/>
<stop offset="1" stop-color="#82349D"/>
</linearGradient>
<linearGradient id="paint26_linear" x1="1178.91" y1="67.9133" x2="1178.09" y2="69.2176" gradientUnits="userSpaceOnUse">
<stop stop-color="#000AFF"/>
<stop offset="1" stop-color="#82349D"/>
</linearGradient>
<linearGradient id="paint27_linear" x1="1182.39" y1="71.8673" x2="1181.57" y2="73.1716" gradientUnits="userSpaceOnUse">
<stop stop-color="#000AFF"/>
<stop offset="1" stop-color="#82349D"/>
</linearGradient>
<linearGradient id="paint28_linear" x1="1171.52" y1="81.4348" x2="1170.7" y2="82.738" gradientUnits="userSpaceOnUse">
<stop stop-color="#000AFF"/>
<stop offset="1" stop-color="#82349D"/>
</linearGradient>
<linearGradient id="paint29_linear" x1="1168.04" y1="77.4807" x2="1167.22" y2="78.784" gradientUnits="userSpaceOnUse">
<stop stop-color="#000AFF"/>
<stop offset="1" stop-color="#82349D"/>
</linearGradient>
<linearGradient id="paint30_linear" x1="1176.96" y1="76.6516" x2="1176.13" y2="77.9548" gradientUnits="userSpaceOnUse">
<stop stop-color="#000AFF"/>
<stop offset="1" stop-color="#82349D"/>
</linearGradient>
<linearGradient id="paint31_linear" x1="1322.6" y1="79.7497" x2="1287.79" y2="90.0077" gradientUnits="userSpaceOnUse">
<stop stop-color="#5200FF"/>
<stop offset="1" stop-color="#9F47D0"/>
</linearGradient>
<linearGradient id="paint32_linear" x1="1322.26" y1="250.04" x2="1261.92" y2="273.616" gradientUnits="userSpaceOnUse">
<stop stop-color="#AD00FF"/>
<stop offset="1" stop-color="#4200FF"/>
</linearGradient>
<linearGradient id="paint33_linear" x1="1285.5" y1="32.7794" x2="1304.5" y2="49.7222" gradientUnits="userSpaceOnUse">
<stop stop-color="#272EAE"/>
<stop offset="1" stop-color="#CC00FF"/>
</linearGradient>
<clipPath id="clip0">
<rect width="26" height="26" fill="white" transform="translate(1276 131)"/>
</clipPath>
<clipPath id="clip1">
<rect width="42.7584" height="42.7584" fill="white" transform="translate(1227.85 144.179) rotate(-119.18)"/>
</clipPath>
</defs>
</svg>
